<?xml version="1.0" encoding="UTF-8"?>
<!DOCTYPE log4j:configuration SYSTEM "log4j.dtd">

<log4j:configuration xmlns:log4j='http://jakarta.apache.org/log4j/'>

    <appender name="ConsoleAppenderTrace" class="org.apache.log4j.ConsoleAppender">
        <param name="Target" value="System.out"/>
        <param name="DatePattern" value="'.'yyyy-MM-dd" />
        <layout class="org.apache.log4j.PatternLayout">
            <param name="ConversionPattern" value="%d %-5p [%t] %C{2} (%F:%L) - %m%n"/>
        </layout>
    </appender>
    <appender name="ConsoleAppenderDebug" class="org.apache.log4j.ConsoleAppender">
        <param name="Target" value="System.out"/>
        <param name="DatePattern" value="'.'yyyy-MM-dd" />
        <layout class="org.apache.log4j.PatternLayout">
            <param name="ConversionPattern" value="%d - %m%n"/>
        </layout>
    </appender>
    <!--
    <appender name="FileAppender" class="org.apache.log4j.DailyRollingFileAppender">
        <param name="Append" value="true" />
        <param name="File" value="log4cxx.test.log" />
        <param name="DatePattern" value="'.'yyyy-MM-dd" />
        
        <layout class="org.apache.log4j.PatternLayout">
            <param name="ConversionPattern" value="%d %-5p [%t] %C{2} (%F:%L) - %m%n"/>
        </layout>
    </appender>
-->
    <root>
        <priority value="TRACE"/>
        <appender-ref ref="ConsoleAppenderDebug"/>
        <!--<appender-ref ref="FileAppender"/> -->
    </root>

</log4j:configuration>
